^I:\FVTC\2020 SPRING\C++\WEEK07\LAB EXERCISE 3 - MAD LIB\CPP.JZR.LABEXERCISE03\JZR.MADLIB\X64\DEBUG\MAIN.OBJ
I:\FVTC\2020 SPRING\C++\WEEK07\LAB EXERCISE 3 - MAD LIB\CPP.JZR.LABEXERCISE03\X64\DEBUG\JZR.MADLIB.EXE
I:\FVTC\2020 SPRING\C++\WEEK07\LAB EXERCISE 3 - MAD LIB\CPP.JZR.LABEXERCISE03\X64\DEBUG\JZR.MADLIB.ILK
I:\FVTC\2020 SPRING\C++\WEEK07\LAB EXERCISE 3 - MAD LIB\CPP.JZR.LABEXERCISE03\X64\DEBUG\JZR.MADLIB.PDB
